dsn/testbench/tc/log/xsim.log
#-----------------------------------------------------------
# xsim v2022.2 (64-bit)
# SW Build 3671981 on Fri Oct 14 04:59:54 MDT 2022
# IP Build 3669848 on Fri Oct 14 08:30:02 MDT 2022
# Start of session at: Fri Sep 29 11:39:56 2023
# Process ID: 156914
# Current directory: /home/tonyho/workspace/fsic/fsic_tony/dsn/testbench/tc
# Command line: xsim -mode tcl -source {xsim.dir/tb_fsic_xelab/xsim_script.tcl}
# Log file: /home/tonyho/workspace/fsic/fsic_tony/dsn/testbench/tc/xsim.log
# Journal file: /home/tonyho/workspace/fsic/fsic_tony/dsn/testbench/tc/xsim.jou
# Running On: ubuntu5, OS: Linux, CPU Frequency: 2200.000 MHz, CPU Physical cores: 32, Host memory: 67323 MB
#-----------------------------------------------------------
source xsim.dir/tb_fsic_xelab/xsim_script.tcl
# xsim {tb_fsic_xelab} -autoloadwcfg -tclbatch {log_wave.tcl}
Time resolution is 1 ps
open_wave_config /home/tonyho/workspace/fsic/fsic_tony/dsn/testbench/tc/tb_fsic_xelab.wcfg
source log_wave.tcl
## log_wave -quiet -verbose -recursive *
## run all
test001: soc cfg write/read test
                 140=> soc POR Assert
                 180=> soc POR De-Assert
                 260=> fpga POR Assert
                 260=> fpga reset Assert
                 300=> fpga POR De-Assert
                 340=> fpga reset De-Assert
test001_is_soc_cfg: soc cfg read/write test
                 565=> soc_is_cfg_write : wbs_adr=30003000, wbs_sel=0001, wbs_wdata=00000001
                 805=> soc_is_cfg_read : wbs_adr=30003000, wbs_sel=1111
                 805=> soc wishbone read data result : send soc_cfg_read_event
                 805=> soc_is_cfg_read : got soc_cfg_read_event
                 805=> test001_is_soc_cfg [PASS] cfg_read_data_expect_value=00000001, cfg_read_data_captured=00000001
-----------------
                1045=> soc_is_cfg_write : wbs_adr=30003000, wbs_sel=0001, wbs_wdata=00000003
                1285=> soc_is_cfg_read : wbs_adr=30003000, wbs_sel=1111
                1285=> soc wishbone read data result : send soc_cfg_read_event
                1285=> soc_is_cfg_read : got soc_cfg_read_event
                1285=> test001_is_soc_cfg [PASS] cfg_read_data_expect_value=00000003, cfg_read_data_captured=00000003
-----------------
test001_is_soc_cfg: soc cfg read/write test - end
--------------------------------------------------------------------
test001_aa_internal_soc_cfg: AA internal register read/write test - start
                1685=> soc_aa_cfg_write : wbs_adr=30002100, wbs_sel=1111, wbs_wdata=00000001
                2285=> soc_aa_cfg_read : wbs_adr=30002100, wbs_sel=1111
                2285=> soc wishbone read data result : send soc_cfg_read_event
                2285=> soc_aa_cfg_read : got soc_cfg_read_event
                2285=> test001_aa_internal_soc_cfg [PASS] cfg_read_data_expect_value=00000001, cfg_read_data_captured=00000001
-----------------
                2605=> soc_aa_cfg_write : wbs_adr=30002104, wbs_sel=1111, wbs_wdata=00000000
                3205=> soc_aa_cfg_read : wbs_adr=30002104, wbs_sel=1111
                3205=> soc wishbone read data result : send soc_cfg_read_event
                3205=> soc_aa_cfg_read : got soc_cfg_read_event
                3205=> test001_aa_internal_soc_cfg [PASS] cfg_read_data_expect_value=00000000, cfg_read_data_captured=00000000
-----------------
test001_aa_internal_soc_cfg: AA Mail Box read/write test - end
--------------------------------------------------------------------
test001_up_soc_cfg: soc cfg read/write test
                3525=> soc_up_cfg_write : wbs_adr=30000000, wbs_sel=1111, wbs_wdata=a5a5a5a5
                3765=> soc_up_cfg_read : wbs_adr=30000000, wbs_sel=1111
                3765=> soc wishbone read data result : send soc_cfg_read_event
                3765=> soc_up_cfg_read : got soc_cfg_read_event
                3765=> test001_up_soc_cfg [PASS] cfg_read_data_expect_value=a5a5a5a5, cfg_read_data_captured=a5a5a5a5
-----------------
                4005=> soc_up_cfg_write : wbs_adr=30000000, wbs_sel=1111, wbs_wdata=12153524
                4245=> soc_up_cfg_read : wbs_adr=30000000, wbs_sel=1111
                4245=> soc wishbone read data result : send soc_cfg_read_event
                4245=> soc_up_cfg_read : got soc_cfg_read_event
                4245=> test001_up_soc_cfg [PASS] cfg_read_data_expect_value=12153524, cfg_read_data_captured=12153524
-----------------
test001_up_soc_cfg: soc cfg read/write test - end
--------------------------------------------------------------------
test002: fpga_axis_req - loop 00
                4385=> soc POR Assert
                4385=> fpga POR Assert
                4385=> fpga reset Assert
                4425=> soc POR De-Assert
                4425=> fpga POR De-Assert
                4465=> fpga reset De-Assert
                4525=> fpga_as_to_is_init done
                4565=> fpga_cfg_write : fpga_axi_awaddr=0000, fpga_axi_awvalid=1, fpga_axi_awready=1, fpga_axi_wdata=00000001, axi_wstrb=1, fpga_axi_wvalid=1, fpga_axi_wready=1
                4765=> soc_is_cfg_write : wbs_adr=30003000, wbs_sel=0001, wbs_wdata=00000001
                4765=> soc rxen_ctl=1
                4765=> fpga rxen_ctl=1
                5205=> fpga_cfg_write : fpga_axi_awaddr=0000, fpga_axi_awvalid=1, fpga_axi_awready=1, fpga_axi_wdata=00000003, axi_wstrb=1, fpga_axi_wvalid=1, fpga_axi_wready=1
                5365=> soc_is_cfg_write : wbs_adr=30003000, wbs_sel=0001, wbs_wdata=00000003
                5365=> soc txen_ctl=1
                5365=> fpga txen_ctl=1
                5805=> fpga_axis_req send data, fpga_as_is_tstrb = 1001, fpga_as_is_tkeep = 0011, fpga_as_is_tlast = 1, fpga_as_is_tdata = c0895e81
                5845=> fpga_axis_req send data, fpga_as_is_tstrb = 0101, fpga_as_is_tkeep = 0010, fpga_as_is_tlast = 1, fpga_as_is_tdata = 46df998d
                5885=> fpga_axis_req send data, fpga_as_is_tstrb = 0110, fpga_as_is_tkeep = 1101, fpga_as_is_tlast = 1, fpga_as_is_tdata = 06d7cd0d
                5925=> fpga_axis_req send data, fpga_as_is_tstrb = 1001, fpga_as_is_tkeep = 0110, fpga_as_is_tlast = 1, fpga_as_is_tdata = 462df78c
                5965=> fpga_axis_req send data, fpga_as_is_tstrb = 0101, fpga_as_is_tkeep = 0111, fpga_as_is_tlast = 0, fpga_as_is_tdata = d513d2aa
                6005=> fpga_axis_req send data, fpga_as_is_tstrb = 0010, fpga_as_is_tkeep = 1110, fpga_as_is_tlast = 0, fpga_as_is_tdata = 47ecdb8f
                6045=> fpga_axis_req send data, fpga_as_is_tstrb = 1100, fpga_as_is_tkeep = 1101, fpga_as_is_tlast = 1, fpga_as_is_tdata = e2ca4ec5
                6085=> fpga_axis_req send data, fpga_as_is_tstrb = 0011, fpga_as_is_tkeep = 1010, fpga_as_is_tlast = 0, fpga_as_is_tdata = b2a72665
                6125=> fpga_axis_req send data, fpga_as_is_tstrb = 1010, fpga_as_is_tkeep = 1101, fpga_as_is_tlast = 0, fpga_as_is_tdata = 10642120
                6165=> fpga_axis_req send data, fpga_as_is_tstrb = 1101, fpga_as_is_tkeep = 0011, fpga_as_is_tlast = 1, fpga_as_is_tdata = 8983b813
                6205=> fpga_axis_req send data, fpga_as_is_tstrb = 0010, fpga_as_is_tkeep = 1110, fpga_as_is_tlast = 1, fpga_as_is_tdata = eaa62ad5
                6245=> fpga_axis_req send data, fpga_as_is_tstrb = 0011, fpga_as_is_tkeep = 1010, fpga_as_is_tlast = 0, fpga_as_is_tdata = e7c572cf
                6285=> get soc_to_fpga_axis be : soc_to_fpga_axis_captured_count=  0,  soc_to_fpga_axis_captured[  0] =xxxxxxxxxxx, fpga_is_as_tstrb=9, fpga_is_as_tkeep=1 , fpga_is_as_tlast=1, fpga_is_as_tdata=c0895e81
                6285=> get soc_to_fpga_axis af : soc_to_fpga_axis_captured_count=  0,  soc_to_fpga_axis_captured[  0] =123c0895e81, fpga_is_as_tstrb=9, fpga_is_as_tkeep=1 , fpga_is_as_tlast=1, fpga_is_as_tdata=c0895e81
                6285=> fpga_axis_req send data, fpga_as_is_tstrb = 0010, fpga_as_is_tkeep = 1010, fpga_as_is_tlast = 1, fpga_as_is_tdata = 9e314c3c
                6325=> get soc_to_fpga_axis be : soc_to_fpga_axis_captured_count=  1,  soc_to_fpga_axis_captured[  1] =xxxxxxxxxxx, fpga_is_as_tstrb=9, fpga_is_as_tkeep=0 , fpga_is_as_tlast=1, fpga_is_as_tdata=46df998d
                6325=> get soc_to_fpga_axis af : soc_to_fpga_axis_captured_count=  1,  soc_to_fpga_axis_captured[  1] =12146df998d, fpga_is_as_tstrb=9, fpga_is_as_tkeep=0 , fpga_is_as_tlast=1, fpga_is_as_tdata=46df998d
                6325=> fpga_axis_req send data, fpga_as_is_tstrb = 1000, fpga_as_is_tkeep = 1001, fpga_as_is_tlast = 1, fpga_as_is_tdata = ec4b34d8
                6365=> fpga_axis_req send data, fpga_as_is_tstrb = 0110, fpga_as_is_tkeep = 1110, fpga_as_is_tlast = 0, fpga_as_is_tdata = 5b0265b6
                6405=> get soc_to_fpga_axis be : soc_to_fpga_axis_captured_count=  2,  soc_to_fpga_axis_captured[  2] =xxxxxxxxxxx, fpga_is_as_tstrb=6, fpga_is_as_tkeep=1 , fpga_is_as_tlast=1, fpga_is_as_tdata=06d7cd0d
                6405=> get soc_to_fpga_axis af : soc_to_fpga_axis_captured_count=  2,  soc_to_fpga_axis_captured[  2] =0c306d7cd0d, fpga_is_as_tstrb=6, fpga_is_as_tkeep=1 , fpga_is_as_tlast=1, fpga_is_as_tdata=06d7cd0d
                6405=> fpga_axis_req send data, fpga_as_is_tstrb = 1011, fpga_as_is_tkeep = 0001, fpga_as_is_tlast = 1, fpga_as_is_tdata = 150fdd2a
                6445=> test002_fpga_axis_req done
                6445=> wait for soc_to_fpga_axis_event
                6445=> get soc_to_fpga_axis be : soc_to_fpga_axis_captured_count=  3,  soc_to_fpga_axis_captured[  3] =xxxxxxxxxxx, fpga_is_as_tstrb=b, fpga_is_as_tkeep=0 , fpga_is_as_tlast=1, fpga_is_as_tdata=462df78c
                6445=> get soc_to_fpga_axis af : soc_to_fpga_axis_captured_count=  3,  soc_to_fpga_axis_captured[  3] =161462df78c, fpga_is_as_tstrb=b, fpga_is_as_tkeep=0 , fpga_is_as_tlast=1, fpga_is_as_tdata=462df78c
                6525=> get soc_to_fpga_axis be : soc_to_fpga_axis_captured_count=  4,  soc_to_fpga_axis_captured[  4] =xxxxxxxxxxx, fpga_is_as_tstrb=b, fpga_is_as_tkeep=1 , fpga_is_as_tlast=0, fpga_is_as_tdata=d513d2aa
                6525=> get soc_to_fpga_axis af : soc_to_fpga_axis_captured_count=  4,  soc_to_fpga_axis_captured[  4] =162d513d2aa, fpga_is_as_tstrb=b, fpga_is_as_tkeep=1 , fpga_is_as_tlast=0, fpga_is_as_tdata=d513d2aa
                6565=> get soc_to_fpga_axis be : soc_to_fpga_axis_captured_count=  5,  soc_to_fpga_axis_captured[  5] =xxxxxxxxxxx, fpga_is_as_tstrb=7, fpga_is_as_tkeep=0 , fpga_is_as_tlast=0, fpga_is_as_tdata=47ecdb8f
                6565=> get soc_to_fpga_axis af : soc_to_fpga_axis_captured_count=  5,  soc_to_fpga_axis_captured[  5] =0e047ecdb8f, fpga_is_as_tstrb=7, fpga_is_as_tkeep=0 , fpga_is_as_tlast=0, fpga_is_as_tdata=47ecdb8f
                6605=> get soc_to_fpga_axis be : soc_to_fpga_axis_captured_count=  6,  soc_to_fpga_axis_captured[  6] =xxxxxxxxxxx, fpga_is_as_tstrb=6, fpga_is_as_tkeep=1 , fpga_is_as_tlast=1, fpga_is_as_tdata=e2ca4ec5
                6605=> get soc_to_fpga_axis af : soc_to_fpga_axis_captured_count=  6,  soc_to_fpga_axis_captured[  6] =0c3e2ca4ec5, fpga_is_as_tstrb=6, fpga_is_as_tkeep=1 , fpga_is_as_tlast=1, fpga_is_as_tdata=e2ca4ec5
                6645=> get soc_to_fpga_axis be : soc_to_fpga_axis_captured_count=  7,  soc_to_fpga_axis_captured[  7] =xxxxxxxxxxx, fpga_is_as_tstrb=d, fpga_is_as_tkeep=0 , fpga_is_as_tlast=0, fpga_is_as_tdata=b2a72665
                6645=> get soc_to_fpga_axis af : soc_to_fpga_axis_captured_count=  7,  soc_to_fpga_axis_captured[  7] =1a0b2a72665, fpga_is_as_tstrb=d, fpga_is_as_tkeep=0 , fpga_is_as_tlast=0, fpga_is_as_tdata=b2a72665
                6725=> get soc_to_fpga_axis be : soc_to_fpga_axis_captured_count=  8,  soc_to_fpga_axis_captured[  8] =xxxxxxxxxxx, fpga_is_as_tstrb=6, fpga_is_as_tkeep=1 , fpga_is_as_tlast=0, fpga_is_as_tdata=10642120
                6725=> get soc_to_fpga_axis af : soc_to_fpga_axis_captured_count=  8,  soc_to_fpga_axis_captured[  8] =0c210642120, fpga_is_as_tstrb=6, fpga_is_as_tkeep=1 , fpga_is_as_tlast=0, fpga_is_as_tdata=10642120
                6765=> get soc_to_fpga_axis be : soc_to_fpga_axis_captured_count=  9,  soc_to_fpga_axis_captured[  9] =xxxxxxxxxxx, fpga_is_as_tstrb=9, fpga_is_as_tkeep=1 , fpga_is_as_tlast=1, fpga_is_as_tdata=8983b813
                6765=> get soc_to_fpga_axis af : soc_to_fpga_axis_captured_count=  9,  soc_to_fpga_axis_captured[  9] =1238983b813, fpga_is_as_tstrb=9, fpga_is_as_tkeep=1 , fpga_is_as_tlast=1, fpga_is_as_tdata=8983b813
                6805=> get soc_to_fpga_axis be : soc_to_fpga_axis_captured_count= 10,  soc_to_fpga_axis_captured[ 10] =xxxxxxxxxxx, fpga_is_as_tstrb=7, fpga_is_as_tkeep=0 , fpga_is_as_tlast=1, fpga_is_as_tdata=eaa62ad5
                6805=> get soc_to_fpga_axis af : soc_to_fpga_axis_captured_count= 10,  soc_to_fpga_axis_captured[ 10] =0e1eaa62ad5, fpga_is_as_tstrb=7, fpga_is_as_tkeep=0 , fpga_is_as_tlast=1, fpga_is_as_tdata=eaa62ad5
                6885=> get soc_to_fpga_axis be : soc_to_fpga_axis_captured_count= 11,  soc_to_fpga_axis_captured[ 11] =xxxxxxxxxxx, fpga_is_as_tstrb=d, fpga_is_as_tkeep=0 , fpga_is_as_tlast=0, fpga_is_as_tdata=e7c572cf
                6885=> get soc_to_fpga_axis af : soc_to_fpga_axis_captured_count= 11,  soc_to_fpga_axis_captured[ 11] =1a0e7c572cf, fpga_is_as_tstrb=d, fpga_is_as_tkeep=0 , fpga_is_as_tlast=0, fpga_is_as_tdata=e7c572cf
                6925=> get soc_to_fpga_axis be : soc_to_fpga_axis_captured_count= 12,  soc_to_fpga_axis_captured[ 12] =xxxxxxxxxxx, fpga_is_as_tstrb=5, fpga_is_as_tkeep=0 , fpga_is_as_tlast=1, fpga_is_as_tdata=9e314c3c
                6925=> get soc_to_fpga_axis af : soc_to_fpga_axis_captured_count= 12,  soc_to_fpga_axis_captured[ 12] =0a19e314c3c, fpga_is_as_tstrb=5, fpga_is_as_tkeep=0 , fpga_is_as_tlast=1, fpga_is_as_tdata=9e314c3c
                6965=> get soc_to_fpga_axis be : soc_to_fpga_axis_captured_count= 13,  soc_to_fpga_axis_captured[ 13] =xxxxxxxxxxx, fpga_is_as_tstrb=4, fpga_is_as_tkeep=1 , fpga_is_as_tlast=1, fpga_is_as_tdata=ec4b34d8
                6965=> get soc_to_fpga_axis af : soc_to_fpga_axis_captured_count= 13,  soc_to_fpga_axis_captured[ 13] =083ec4b34d8, fpga_is_as_tstrb=4, fpga_is_as_tkeep=1 , fpga_is_as_tlast=1, fpga_is_as_tdata=ec4b34d8
                7045=> get soc_to_fpga_axis be : soc_to_fpga_axis_captured_count= 14,  soc_to_fpga_axis_captured[ 14] =xxxxxxxxxxx, fpga_is_as_tstrb=7, fpga_is_as_tkeep=0 , fpga_is_as_tlast=0, fpga_is_as_tdata=5b0265b6
                7045=> get soc_to_fpga_axis af : soc_to_fpga_axis_captured_count= 14,  soc_to_fpga_axis_captured[ 14] =0e05b0265b6, fpga_is_as_tstrb=7, fpga_is_as_tkeep=0 , fpga_is_as_tlast=0, fpga_is_as_tdata=5b0265b6
                7085=> get soc_to_fpga_axis be : soc_to_fpga_axis_captured_count= 15,  soc_to_fpga_axis_captured[ 15] =xxxxxxxxxxx, fpga_is_as_tstrb=8, fpga_is_as_tkeep=1 , fpga_is_as_tlast=1, fpga_is_as_tdata=150fdd2a
                7085=> get soc_to_fpga_axis af : soc_to_fpga_axis_captured_count= 15,  soc_to_fpga_axis_captured[ 15] =103150fdd2a, fpga_is_as_tstrb=8, fpga_is_as_tkeep=1 , fpga_is_as_tlast=1, fpga_is_as_tdata=150fdd2a
                7085=> soc_to_fpga_axis_captured : send soc_to_fpga_axiis_event
                7085=> soc_to_fpga_axis_expect_count =  16
                7085=> soc_to_fpga_axis_captured_count =  16
                7085=> test002 [PASS] soc_to_fpga_axis_expect_count =  16, soc_to_fpga_axis_captured_count =  16
                7085=> test002 [Error] idx3=         0, soc_to_fpga_axis_expect_value[         0] = 127c0895e81, soc_to_fpga_axis_captured[         0]  = 123c0895e81
                7085=> test002 [Error] idx3=         1, soc_to_fpga_axis_expect_value[         1] = 0a546df998d, soc_to_fpga_axis_captured[         1]  = 12146df998d
                7085=> test002 [Error] idx3=         2, soc_to_fpga_axis_expect_value[         2] = 0db06d7cd0d, soc_to_fpga_axis_captured[         2]  = 0c306d7cd0d
                7085=> test002 [Error] idx3=         3, soc_to_fpga_axis_expect_value[         3] = 12d462df78c, soc_to_fpga_axis_captured[         3]  = 161462df78c
                7085=> test002 [Error] idx3=         4, soc_to_fpga_axis_expect_value[         4] = 0aed513d2aa, soc_to_fpga_axis_captured[         4]  = 162d513d2aa
                7085=> test002 [Error] idx3=         5, soc_to_fpga_axis_expect_value[         5] = 05c47ecdb8f, soc_to_fpga_axis_captured[         5]  = 0e047ecdb8f
                7085=> test002 [Error] idx3=         6, soc_to_fpga_axis_expect_value[         6] = 19be2ca4ec5, soc_to_fpga_axis_captured[         6]  = 0c3e2ca4ec5
                7085=> test002 [Error] idx3=         7, soc_to_fpga_axis_expect_value[         7] = 074b2a72665, soc_to_fpga_axis_captured[         7]  = 1a0b2a72665
                7085=> test002 [Error] idx3=         8, soc_to_fpga_axis_expect_value[         8] = 15a10642120, soc_to_fpga_axis_captured[         8]  = 0c210642120
                7085=> test002 [Error] idx3=         9, soc_to_fpga_axis_expect_value[         9] = 1a78983b813, soc_to_fpga_axis_captured[         9]  = 1238983b813
                7085=> test002 [Error] idx3=        10, soc_to_fpga_axis_expect_value[        10] = 05deaa62ad5, soc_to_fpga_axis_captured[        10]  = 0e1eaa62ad5
                7085=> test002 [Error] idx3=        11, soc_to_fpga_axis_expect_value[        11] = 074e7c572cf, soc_to_fpga_axis_captured[        11]  = 1a0e7c572cf
                7085=> test002 [Error] idx3=        12, soc_to_fpga_axis_expect_value[        12] = 0559e314c3c, soc_to_fpga_axis_captured[        12]  = 0a19e314c3c
                7085=> test002 [Error] idx3=        13, soc_to_fpga_axis_expect_value[        13] = 113ec4b34d8, soc_to_fpga_axis_captured[        13]  = 083ec4b34d8
                7085=> test002 [Error] idx3=        14, soc_to_fpga_axis_expect_value[        14] = 0dc5b0265b6, soc_to_fpga_axis_captured[        14]  = 0e05b0265b6
                7085=> test002 [Error] idx3=        15, soc_to_fpga_axis_expect_value[        15] = 163150fdd2a, soc_to_fpga_axis_captured[        15]  = 103150fdd2a
test002: fpga_axis_req - loop 01
                7325=> soc POR Assert
                7325=> fpga POR Assert
                7325=> fpga reset Assert
                7365=> fpga POR De-Assert
                7375=> soc POR De-Assert
                7405=> fpga reset De-Assert
                7465=> fpga_as_to_is_init done
                7505=> fpga_cfg_write : fpga_axi_awaddr=0000, fpga_axi_awvalid=1, fpga_axi_awready=1, fpga_axi_wdata=00000001, axi_wstrb=1, fpga_axi_wvalid=1, fpga_axi_wready=1
                7675=> soc_is_cfg_write : wbs_adr=30003000, wbs_sel=0001, wbs_wdata=00000001
                7675=> soc rxen_ctl=1
                7675=> fpga rxen_ctl=1
                8105=> fpga_cfg_write : fpga_axi_awaddr=0000, fpga_axi_awvalid=1, fpga_axi_awready=1, fpga_axi_wdata=00000003, axi_wstrb=1, fpga_axi_wvalid=1, fpga_axi_wready=1
                8275=> soc_is_cfg_write : wbs_adr=30003000, wbs_sel=0001, wbs_wdata=00000003
                8275=> soc txen_ctl=1
                8275=> fpga txen_ctl=1
                8745=> fpga_axis_req send data, fpga_as_is_tstrb = 1011, fpga_as_is_tkeep = 1010, fpga_as_is_tlast = 0, fpga_as_is_tdata = 27f2554f
                8785=> fpga_axis_req send data, fpga_as_is_tstrb = 0001, fpga_as_is_tkeep = 1001, fpga_as_is_tlast = 0, fpga_as_is_tdata = 0aaa4b15
                8825=> fpga_axis_req send data, fpga_as_is_tstrb = 1111, fpga_as_is_tkeep = 1111, fpga_as_is_tlast = 0, fpga_as_is_tdata = 2635fb4c
                8865=> fpga_axis_req send data, fpga_as_is_tstrb = 1111, fpga_as_is_tkeep = 1100, fpga_as_is_tlast = 1, fpga_as_is_tdata = dbcd60b7
                8905=> fpga_axis_req send data, fpga_as_is_tstrb = 1001, fpga_as_is_tkeep = 0000, fpga_as_is_tlast = 1, fpga_as_is_tdata = 44de3789
                8945=> fpga_axis_req send data, fpga_as_is_tstrb = 0110, fpga_as_is_tkeep = 1100, fpga_as_is_tlast = 0, fpga_as_is_tdata = a8c7fc51
                8985=> fpga_axis_req send data, fpga_as_is_tstrb = 0111, fpga_as_is_tkeep = 1101, fpga_as_is_tlast = 0, fpga_as_is_tdata = 6457edc8
                9025=> fpga_axis_req send data, fpga_as_is_tstrb = 1101, fpga_as_is_tkeep = 1001, fpga_as_is_tlast = 1, fpga_as_is_tdata = bf05007e
                9065=> fpga_axis_req send data, fpga_as_is_tstrb = 0101, fpga_as_is_tkeep = 1000, fpga_as_is_tlast = 1, fpga_as_is_tdata = e9ebf6d3
                9105=> fpga_axis_req send data, fpga_as_is_tstrb = 1111, fpga_as_is_tkeep = 1010, fpga_as_is_tlast = 0, fpga_as_is_tdata = 248b4b49
                9145=> fpga_axis_req send data, fpga_as_is_tstrb = 1110, fpga_as_is_tkeep = 1100, fpga_as_is_tlast = 0, fpga_as_is_tdata = c33f3886
                9185=> get soc_to_fpga_axis be : soc_to_fpga_axis_captured_count=  0,  soc_to_fpga_axis_captured[  0] =123c0895e81, fpga_is_as_tstrb=d, fpga_is_as_tkeep=0 , fpga_is_as_tlast=0, fpga_is_as_tdata=27f2554f
                9185=> get soc_to_fpga_axis af : soc_to_fpga_axis_captured_count=  0,  soc_to_fpga_axis_captured[  0] =1a027f2554f, fpga_is_as_tstrb=d, fpga_is_as_tkeep=0 , fpga_is_as_tlast=0, fpga_is_as_tdata=27f2554f
                9185=> fpga_axis_req send data, fpga_as_is_tstrb = 0011, fpga_as_is_tkeep = 0011, fpga_as_is_tlast = 1, fpga_as_is_tdata = 937dbc26
                9225=> get soc_to_fpga_axis be : soc_to_fpga_axis_captured_count=  1,  soc_to_fpga_axis_captured[  1] =12146df998d, fpga_is_as_tstrb=c, fpga_is_as_tkeep=1 , fpga_is_as_tlast=0, fpga_is_as_tdata=0aaa4b15
                9225=> get soc_to_fpga_axis af : soc_to_fpga_axis_captured_count=  1,  soc_to_fpga_axis_captured[  1] =1820aaa4b15, fpga_is_as_tstrb=c, fpga_is_as_tkeep=1 , fpga_is_as_tlast=0, fpga_is_as_tdata=0aaa4b15
                9225=> fpga_axis_req send data, fpga_as_is_tstrb = 1111, fpga_as_is_tkeep = 0100, fpga_as_is_tlast = 1, fpga_as_is_tdata = d9d292b3
                9265=> get soc_to_fpga_axis be : soc_to_fpga_axis_captured_count=  2,  soc_to_fpga_axis_captured[  2] =0c306d7cd0d, fpga_is_as_tstrb=f, fpga_is_as_tkeep=1 , fpga_is_as_tlast=0, fpga_is_as_tdata=2635fb4c
                9265=> get soc_to_fpga_axis af : soc_to_fpga_axis_captured_count=  2,  soc_to_fpga_axis_captured[  2] =1e22635fb4c, fpga_is_as_tstrb=f, fpga_is_as_tkeep=1 , fpga_is_as_tlast=0, fpga_is_as_tdata=2635fb4c
                9265=> fpga_axis_req send data, fpga_as_is_tstrb = 0110, fpga_as_is_tkeep = 1010, fpga_as_is_tlast = 1, fpga_as_is_tdata = e59b36cb
                9305=> get soc_to_fpga_axis be : soc_to_fpga_axis_captured_count=  3,  soc_to_fpga_axis_captured[  3] =161462df78c, fpga_is_as_tstrb=e, fpga_is_as_tkeep=0 , fpga_is_as_tlast=1, fpga_is_as_tdata=dbcd60b7
                9305=> get soc_to_fpga_axis af : soc_to_fpga_axis_captured_count=  3,  soc_to_fpga_axis_captured[  3] =1c1dbcd60b7, fpga_is_as_tstrb=e, fpga_is_as_tkeep=0 , fpga_is_as_tlast=1, fpga_is_as_tdata=dbcd60b7
                9305=> fpga_axis_req send data, fpga_as_is_tstrb = 1010, fpga_as_is_tkeep = 0101, fpga_as_is_tlast = 1, fpga_as_is_tdata = f682e2ed
                9345=> get soc_to_fpga_axis be : soc_to_fpga_axis_captured_count=  4,  soc_to_fpga_axis_captured[  4] =162d513d2aa, fpga_is_as_tstrb=8, fpga_is_as_tkeep=0 , fpga_is_as_tlast=1, fpga_is_as_tdata=44de3789
                9345=> get soc_to_fpga_axis af : soc_to_fpga_axis_captured_count=  4,  soc_to_fpga_axis_captured[  4] =10144de3789, fpga_is_as_tstrb=8, fpga_is_as_tkeep=0 , fpga_is_as_tlast=1, fpga_is_as_tdata=44de3789
                9345=> fpga_axis_req send data, fpga_as_is_tstrb = 1001, fpga_as_is_tkeep = 0100, fpga_as_is_tlast = 0, fpga_as_is_tdata = efbe94df
                9385=> test002_fpga_axis_req done
                9385=> wait for soc_to_fpga_axis_event
                9425=> get soc_to_fpga_axis be : soc_to_fpga_axis_captured_count=  5,  soc_to_fpga_axis_captured[  5] =0e047ecdb8f, fpga_is_as_tstrb=6, fpga_is_as_tkeep=0 , fpga_is_as_tlast=0, fpga_is_as_tdata=a8c7fc51
                9425=> get soc_to_fpga_axis af : soc_to_fpga_axis_captured_count=  5,  soc_to_fpga_axis_captured[  5] =0c0a8c7fc51, fpga_is_as_tstrb=6, fpga_is_as_tkeep=0 , fpga_is_as_tlast=0, fpga_is_as_tdata=a8c7fc51
                9465=> get soc_to_fpga_axis be : soc_to_fpga_axis_captured_count=  6,  soc_to_fpga_axis_captured[  6] =0c3e2ca4ec5, fpga_is_as_tstrb=e, fpga_is_as_tkeep=1 , fpga_is_as_tlast=0, fpga_is_as_tdata=6457edc8
                9465=> get soc_to_fpga_axis af : soc_to_fpga_axis_captured_count=  6,  soc_to_fpga_axis_captured[  6] =1c26457edc8, fpga_is_as_tstrb=e, fpga_is_as_tkeep=1 , fpga_is_as_tlast=0, fpga_is_as_tdata=6457edc8
                9505=> get soc_to_fpga_axis be : soc_to_fpga_axis_captured_count=  7,  soc_to_fpga_axis_captured[  7] =1a0b2a72665, fpga_is_as_tstrb=c, fpga_is_as_tkeep=1 , fpga_is_as_tlast=1, fpga_is_as_tdata=bf05007e
                9505=> get soc_to_fpga_axis af : soc_to_fpga_axis_captured_count=  7,  soc_to_fpga_axis_captured[  7] =183bf05007e, fpga_is_as_tstrb=c, fpga_is_as_tkeep=1 , fpga_is_as_tlast=1, fpga_is_as_tdata=bf05007e
                9545=> get soc_to_fpga_axis be : soc_to_fpga_axis_captured_count=  8,  soc_to_fpga_axis_captured[  8] =0c210642120, fpga_is_as_tstrb=c, fpga_is_as_tkeep=0 , fpga_is_as_tlast=1, fpga_is_as_tdata=e9ebf6d3
                9545=> get soc_to_fpga_axis af : soc_to_fpga_axis_captured_count=  8,  soc_to_fpga_axis_captured[  8] =181e9ebf6d3, fpga_is_as_tstrb=c, fpga_is_as_tkeep=0 , fpga_is_as_tlast=1, fpga_is_as_tdata=e9ebf6d3
                9625=> get soc_to_fpga_axis be : soc_to_fpga_axis_captured_count=  9,  soc_to_fpga_axis_captured[  9] =1238983b813, fpga_is_as_tstrb=d, fpga_is_as_tkeep=0 , fpga_is_as_tlast=0, fpga_is_as_tdata=248b4b49
                9625=> get soc_to_fpga_axis af : soc_to_fpga_axis_captured_count=  9,  soc_to_fpga_axis_captured[  9] =1a0248b4b49, fpga_is_as_tstrb=d, fpga_is_as_tkeep=0 , fpga_is_as_tlast=0, fpga_is_as_tdata=248b4b49
                9665=> get soc_to_fpga_axis be : soc_to_fpga_axis_captured_count= 10,  soc_to_fpga_axis_captured[ 10] =0e1eaa62ad5, fpga_is_as_tstrb=6, fpga_is_as_tkeep=0 , fpga_is_as_tlast=0, fpga_is_as_tdata=c33f3886
                9665=> get soc_to_fpga_axis af : soc_to_fpga_axis_captured_count= 10,  soc_to_fpga_axis_captured[ 10] =0c0c33f3886, fpga_is_as_tstrb=6, fpga_is_as_tkeep=0 , fpga_is_as_tlast=0, fpga_is_as_tdata=c33f3886
                9705=> get soc_to_fpga_axis be : soc_to_fpga_axis_captured_count= 11,  soc_to_fpga_axis_captured[ 11] =1a0e7c572cf, fpga_is_as_tstrb=9, fpga_is_as_tkeep=1 , fpga_is_as_tlast=1, fpga_is_as_tdata=937dbc26
                9705=> get soc_to_fpga_axis af : soc_to_fpga_axis_captured_count= 11,  soc_to_fpga_axis_captured[ 11] =123937dbc26, fpga_is_as_tstrb=9, fpga_is_as_tkeep=1 , fpga_is_as_tlast=1, fpga_is_as_tdata=937dbc26
                9745=> get soc_to_fpga_axis be : soc_to_fpga_axis_captured_count= 12,  soc_to_fpga_axis_captured[ 12] =0a19e314c3c, fpga_is_as_tstrb=a, fpga_is_as_tkeep=0 , fpga_is_as_tlast=1, fpga_is_as_tdata=d9d292b3
                9745=> get soc_to_fpga_axis af : soc_to_fpga_axis_captured_count= 12,  soc_to_fpga_axis_captured[ 12] =141d9d292b3, fpga_is_as_tstrb=a, fpga_is_as_tkeep=0 , fpga_is_as_tlast=1, fpga_is_as_tdata=d9d292b3
